…
What is the mean total of steps taken per day? 1.Calculate the total number of steps taken per day 2.If you do not understand the difference between a histogram and a barplot, research the difference between them. Make a histogram of the total number of steps taken each day 3.Calculate and report the mean and median of the total number of steps taken per day

``` r
date_steps <- activity %>%
        group_by(date) %>%
        filter(!is.na(steps)) %>%
        summarize(total=sum(steps))%>%
        print()
```

    ## Warning: package 'bindrcpp' was built under R version 3.4.1

    ## # A tibble: 53 x 2
    ##          date total
    ##        <date> <int>
    ##  1 2012-10-02   126
    ##  2 2012-10-03 11352
    ##  3 2012-10-04 12116
    ##  4 2012-10-05 13294
    ##  5 2012-10-06 15420
    ##  6 2012-10-07 11015
    ##  7 2012-10-09 12811
    ##  8 2012-10-10  9900
    ##  9 2012-10-11 10304
    ## 10 2012-10-12 17382
    ## # ... with 43 more rows
…
What is the average daily activity pattern?

1.Make a time series plot (i.e. type = "l") of the 5-minute interval (x-axis) and the average number of steps taken, averaged across all days (y-axis) 2.Which 5-minute interval, on average across all the days in the dataset, contains the maximum number of steps?

We get the needed data for the interval

``` r
interval_steps <- activity %>%
        group_by(interval) %>%
        filter(!is.na(steps)) %>%
        summarize(average_steps = mean(steps)) %>%
        print()
```

    ## # A tibble: 288 x 2
    ##    interval average_steps
    ##       <int>         <dbl>
    ##  1        0     1.7169811
    ##  2        5     0.3396226
    ##  3       10     0.1320755
    ##  4       15     0.1509434
    ##  5       20     0.0754717
    ##  6       25     2.0943396
    ##  7       30     0.5283019
    ##  8       35     0.8679245
    ##  9       40     0.0000000
    ## 10       45     1.4716981
    ## # ... with 278 more rows
…
    ## [1] "The total of NAs is: 2304"

Let's fill the NA with the average steps of that day. We will use floor function to get the appropriated data.

``` r
data_no_na <- activity %>%
        group_by(date) %>%
        mutate(average_steps = mean(steps,na.rm=T))%>%
        mutate(average_steps = replace(average_steps, is.nan(average_steps),
                                       mean(activity$steps,na.rm=T))) %>%
        mutate(steps = replace(steps, is.na(steps), average_steps)) %>%
        print()
```

    ## # A tibble: 17,568 x 4
    ## # Groups:   date [61]
    ##      steps       date interval average_steps
    ##      <dbl>     <date>    <int>         <dbl>
    ##  1 37.3826 2012-10-01        0       37.3826
    ##  2 37.3826 2012-10-01        5       37.3826
    ##  3 37.3826 2012-10-01       10       37.3826
    ##  4 37.3826 2012-10-01       15       37.3826
    ##  5 37.3826 2012-10-01       20       37.3826
    ##  6 37.3826 2012-10-01       25       37.3826
    ##  7 37.3826 2012-10-01       30       37.3826
    ##  8 37.3826 2012-10-01       35       37.3826
    ##  9 37.3826 2012-10-01       40       37.3826
    ## 10 37.3826 2012-10-01       45       37.3826
    ## # ... with 17,558 more rows
…
1.Create a new factor variable in the dataset with two levels - "weekdays" and "weekends" indicating whether a given date is a weekday or weekend day. 2.Make a panel plot containing a time series plot (i.e. type = "l") of the 5-minute interval (x-axis) and the average number of steps taken, averaged across all weekday days or weekend days (y-axis). See the README file in the GitHub repository to see an example of what this plot should look like using simulated data.

We first want to set the type of day to the data

``` r
data_no_na <- data_no_na %>%
        mutate(type = ifelse(wday(date)==1 |wday(date)==7, 
               "weekend", "weekday")) %>%
        group_by(interval, type) %>%
        summarize(average_steps = mean(steps,na.rm=T)) %>%
        print()
```

    ## # A tibble: 576 x 3
    ## # Groups:   interval [?]
    ##    interval    type average_steps
    ##       <int>   <chr>         <dbl>
    ##  1        0 weekday      7.006569
    ##  2        0 weekend      4.672825
    ##  3        5 weekday      5.384347
    ##  4        5 weekend      4.672825
    ##  5       10 weekday      5.139902
    ##  6       10 weekend      4.672825
    ##  7       15 weekday      5.162124
    ##  8       15 weekend      4.672825
    ##  9       20 weekday      5.073235
    ## 10       20 weekend      4.672825
    ## # ... with 566 more rows
…
